[TRACE] 2019-02-08 00:01:43.164 A2:11 - This is trace message; the file will be overwritten every day 
[TRACE] 2019-02-08 00:04:16.497 A2:11 - This is trace message; the file will be overwritten every day 
[TRACE] 2019-02-08 00:10:27.228 A2:11 - This is trace message; the file will be overwritten every day 
[TRACE] 2019-02-08 01:38:21.358 A2:11 - This is trace message; the file will be overwritten every day 
[TRACE] 2019-02-08 01:49:03.258 A2:11 - This is trace message; the file will be overwritten every day 
[TRACE] 2019-02-08 02:57:56.944 A2:11 - This is trace message; the file will be overwritten every day 
[TRACE] 2019-02-08 02:59:26.944 A2:11 - This is trace message; the file will be overwritten every day 
[TRACE] 2019-02-08 03:22:09.740 A2:11 - This is trace message; the file will be overwritten every day 
[TRACE] 2019-02-08 03:28:48.277 A2:11 - This is trace message; the file will be overwritten every day 
[TRACE] 2019-02-08 04:42:06.930 A2:11 - This is trace message; the file will be overwritten every day 
[TRACE] 2019-02-08 04:44:00.253 A2:11 - This is trace message; the file will be overwritten every day 
[TRACE] 2019-02-08 04:45:08.595 A2:11 - This is trace message; the file will be overwritten every day 
[TRACE] 2019-02-08 04:51:02.797 A2:11 - This is trace message; the file will be overwritten every day 
[TRACE] 2019-02-08 16:43:30.748 A2:11 - This is trace message; the file will be overwritten every day 
[TRACE] 2019-02-08 17:57:50.212 A2:11 - This is trace message; the file will be overwritten every day 
[TRACE] 2019-02-08 19:24:51.607 A2:11 - This is trace message; the file will be overwritten every day 
[TRACE] 2019-02-08 20:31:47.468 A2:11 - This is trace message; the file will be overwritten every day 
[TRACE] 2019-02-08 20:34:48.799 A2:11 - This is trace message; the file will be overwritten every day 
[TRACE] 2019-02-08 20:35:29.074 A2:11 - This is trace message; the file will be overwritten every day 
